Final Project
…
The dataset has two entries for the country of Nigeria (Nigeria and NIGERIA). The difference in the data is in the year the data was collected.

plastics%>%
  filter(country=="Nigeria",year!=2020) #In 2020, Nigeria was logged as NIGERIA

## # A tibble: 0 x 14
## #  with 14 variables: country <chr>, year <dbl>, parent_company <chr>,
## #   empty <dbl>, hdpe <dbl>, ldpe <dbl>, o <dbl>, pet <dbl>, pp <dbl>,
## #   ps <dbl>, pvc <dbl>, grand_total <dbl>, num_events <dbl>, volunteers <dbl>

plastics%>%
  filter(country=="Nigeria",year!=2019)#In 2019, Nigeria was logged as Nigeria

## # A tibble: 335 x 14
##    country  year parent_company empty  hdpe  ldpe     o   pet    pp    ps   pvc
##    <chr>   <dbl> <chr>          <dbl> <dbl> <dbl> <dbl> <dbl> <dbl> <dbl> <dbl>
##  1 Nigeria  2020 null             315  3018  5634  2038 17634   513  1034    14
##  2 Nigeria  2020 A & B Food Ltd     0     0    15     0     0     0     0     0
##  3 Nigeria  2020 A & P Foods L     0     0     8     0     0     0     0     0
##  4 Nigeria  2020 A and P Food      0     0     7     0     0     0     0     0
##  5 Nigeria  2020 Adonal Pharma     0     0    15     0     0     0     0     0
##  6 Nigeria  2020 Adonko Compan     0     0     0     0     1     0     0     0
##  7 Nigeria  2020 AGAD Ltd           0     0     0     0     1     0     0     0
##  8 Nigeria  2020 Agad Nig. Ltd      0     0   164     0     0     0     0     0
##  9 Nigeria  2020 Agrim Interna     0     0    10     0     0     0     0     0
## 10 Nigeria  2020 Akogate Still     0     0     0     0     1     0     0     0
## #  with 325 more rows, and 3 more variables: grand_total <dbl>,
## #   num_events <dbl>, volunteers <dbl>

plastics%>%
  filter(country=="NIGERIA",year!=2019)#In 2019, Nigeria was logged as Nigeria

## # A tibble: 0 x 14
## #  with 14 variables: country <chr>, year <dbl>, parent_company <chr>,
## #   empty <dbl>, hdpe <dbl>, ldpe <dbl>, o <dbl>, pet <dbl>, pp <dbl>,
## #   ps <dbl>, pvc <dbl>, grand_total <dbl>, num_events <dbl>, volunteers <dbl>

plastics%>%
  filter(country=="NIGERIA",year!=2020)#In 2020, Nigeria was logged as NIGERIA

## # A tibble: 354 x 14
##    country  year parent_company empty  hdpe  ldpe     o   pet    pp    ps   pvc
##    <chr>   <dbl> <chr>          <dbl> <dbl> <dbl> <dbl> <dbl> <dbl> <dbl> <dbl>
##  1 NIGERIA  2019 Grand Total        0  3728 11700 28055 36226   708   120    33
##  2 NIGERIA  2019 Unbranded          0  1535  2581 19038  5720   577   120     0
##  3 NIGERIA  2019 La Doo             0     0     0     0 15221     0     0     0
##  4 NIGERIA  2019 Barna              0     0     0     0  6225     0     0     0
##  5 NIGERIA  2019 The Coca-Cola     0     0     0    57  1811    16     0     0
##  6 NIGERIA  2019 Reckitt Benck     0   985     0   570    10     0     0     0
##  7 NIGERIA  2019 Niger Biscuit     0     0     0  1438     0     0     0     0
##  8 NIGERIA  2019 Master Chef        0     0     0  1259     0     0     0     0
##  9 NIGERIA  2019 FrieslandCamp     0     0   137  1045     0     0     0     0
## 10 NIGERIA  2019 OK Foods, Inc.     0     0    87   982     0     0     0     0
## #  with 344 more rows, and 3 more variables: grand_total <dbl>,
## #   num_events <dbl>, volunteers <dbl>
…
